…
### Hyperparameter tuning

Now, to find the best penalty value, we will do a grid search where we
first make a grid of all the penalty values that we want to check and
then produce a model with each of those penalties.

``` r
lambda_grid <- grid_regular(penalty(), levels = 40)

lambda_grid
```

    ## # A tibble: 40 x 1
    ##     penalty
    ##       <dbl>
    ##  1 1.00e-10
    ##  2 1.80e-10
    ##  3 3.26e-10
    ##  4 5.88e-10
    ##  5 1.06e- 9
    ##  6 1.91e- 9
    ##  7 3.46e- 9
    ##  8 6.24e- 9
    ##  9 1.13e- 8
    ## 10 2.03e- 8
    ## # ... with 30 more rows
…
In plain words, when you are sampling to create a new dataset, before
you randomly choose pick the next observation, you must return the last
picked observation back where it will it possible to be repicked. Hence,
you may have duplicates in your resampled data.

``` r
set.seed(123)
review_folds <- bootstraps(review_train, strata = rating)
review_folds
```

    ## # Bootstrap sampling using stratification 
    ## # A tibble: 25 x 2
    ##    splits             id         
    ##    <named list>       <chr>      
    ##  1 <split [2.2K/812]> Bootstrap01
    ##  2 <split [2.2K/850]> Bootstrap02
    ##  3 <split [2.2K/814]> Bootstrap03
    ##  4 <split [2.2K/814]> Bootstrap04
    ##  5 <split [2.2K/853]> Bootstrap05
    ##  6 <split [2.2K/840]> Bootstrap06
    ##  7 <split [2.2K/816]> Bootstrap07
    ##  8 <split [2.2K/826]> Bootstrap08
    ##  9 <split [2.2K/804]> Bootstrap09
    ## 10 <split [2.2K/809]> Bootstrap10
    ## # ... with 15 more rows
…
Let’s have a look at what does that look like:

``` r
lasso_grid %>%
  collect_metrics()
```

    ## # A tibble: 120 x 6
    ##     penalty .metric .estimator  mean     n std_err
    ##       <dbl> <chr>   <chr>      <dbl> <int>   <dbl>
    ##  1 1.00e-10 npv     binary     0.740    25 0.00518
    ##  2 1.00e-10 ppv     binary     0.864    25 0.00302
    ##  3 1.00e-10 roc_auc binary     0.878    25 0.00276
    ##  4 1.80e-10 npv     binary     0.740    25 0.00518
    ##  5 1.80e-10 ppv     binary     0.864    25 0.00302
    ##  6 1.80e-10 roc_auc binary     0.878    25 0.00276
    ##  7 3.26e-10 npv     binary     0.740    25 0.00518
    ##  8 3.26e-10 ppv     binary     0.864    25 0.00302
    ##  9 3.26e-10 roc_auc binary     0.878    25 0.00276
    ## 10 5.88e-10 npv     binary     0.740    25 0.00518
    ## # ... with 110 more rows
…
